{"frames": [

{
	"filename": "base/16.png",
	"frame": {"x":1,"y":1,"w":56,"h":68},
	"rotated": false,
	"trimmed": false,
	"spriteSourceSize": {"x":0,"y":0,"w":56,"h":68},
	"sourceSize": {"w":56,"h":68},
	"pivot": {"x":0.5,"y":0.5}
},
{
	"filename": "base/17.png",
	"frame": {"x":59,"y":1,"w":56,"h":68},
	"rotated": false,
	"trimmed": false,
	"spriteSourceSize": {"x":0,"y":0,"w":56,"h":68},
	"sourceSize": {"w":56,"h":68},
	"pivot": {"x":0.5,"y":0.5}
},
{
	"filename": "base/18.png",
	"frame": {"x":117,"y":1,"w":56,"h":68},
	"rotated": false,
	"trimmed": false,
	"spriteSourceSize": {"x":0,"y":0,"w":56,"h":68},
	"sourceSize": {"w":56,"h":68},
	"pivot": {"x":0.5,"y":0.5}
},
{
	"filename": "base/19.png",
	"frame": {"x":175,"y":1,"w":56,"h":68},
	"rotated": false,
	"trimmed": false,
	"spriteSourceSize": {"x":0,"y":0,"w":56,"h":68},
	"sourceSize": {"w":56,"h":68},
	"pivot": {"x":0.5,"y":0.5}
},
{
	"filename": "base/20.png",
	"frame": {"x":117,"y":1,"w":56,"h":68},
	"rotated": false,
	"trimmed": false,
	"spriteSourceSize": {"x":0,"y":0,"w":56,"h":68},
	"sourceSize": {"w":56,"h":68},
	"pivot": {"x":0.5,"y":0.5}
},
{
	"filename": "hit/76.png",
	"frame": {"x":1,"y":71,"w":56,"h":68},
	"rotated": false,
	"trimmed": false,
	"spriteSourceSize": {"x":0,"y":0,"w":56,"h":68},
	"sourceSize": {"w":56,"h":68},
	"pivot": {"x":0.5,"y":0.5}
},
{
	"filename": "hit/77.png",
	"frame": {"x":59,"y":71,"w":56,"h":68},
	"rotated": false,
	"trimmed": false,
	"spriteSourceSize": {"x":0,"y":0,"w":56,"h":68},
	"sourceSize": {"w":56,"h":68},
	"pivot": {"x":0.5,"y":0.5}
},
{
	"filename": "hit/78.png",
	"frame": {"x":117,"y":71,"w":56,"h":68},
	"rotated": false,
	"trimmed": false,
	"spriteSourceSize": {"x":0,"y":0,"w":56,"h":68},
	"sourceSize": {"w":56,"h":68},
	"pivot": {"x":0.5,"y":0.5}
},
{
	"filename": "hit/79.png",
	"frame": {"x":175,"y":71,"w":56,"h":68},
	"rotated": false,
	"trimmed": false,
	"spriteSourceSize": {"x":0,"y":0,"w":56,"h":68},
	"sourceSize": {"w":56,"h":68},
	"pivot": {"x":0.5,"y":0.5}
},
{
	"filename": "hit/80.png",
	"frame": {"x":1,"y":141,"w":56,"h":68},
	"rotated": false,
	"trimmed": false,
	"spriteSourceSize": {"x":0,"y":0,"w":56,"h":68},
	"sourceSize": {"w":56,"h":68},
	"pivot": {"x":0.5,"y":0.5}
},
{
	"filename": "hit/81.png",
	"frame": {"x":59,"y":141,"w":56,"h":68},
	"rotated": false,
	"trimmed": false,
	"spriteSourceSize": {"x":0,"y":0,"w":56,"h":68},
	"sourceSize": {"w":56,"h":68},
	"pivot": {"x":0.5,"y":0.5}
},
{
	"filename": "jump/51.png",
	"frame": {"x":117,"y":141,"w":56,"h":68},
	"rotated": false,
	"trimmed": false,
	"spriteSourceSize": {"x":0,"y":0,"w":56,"h":68},
	"sourceSize": {"w":56,"h":68},
	"pivot": {"x":0.5,"y":0.5}
},
{
	"filename": "jump/52.png",
	"frame": {"x":175,"y":141,"w":56,"h":68},
	"rotated": false,
	"trimmed": false,
	"spriteSourceSize": {"x":0,"y":0,"w":56,"h":68},
	"sourceSize": {"w":56,"h":68},
	"pivot": {"x":0.5,"y":0.5}
},
{
	"filename": "jump/53.png",
	"frame": {"x":1,"y":211,"w":56,"h":68},
	"rotated": false,
	"trimmed": false,
	"spriteSourceSize": {"x":0,"y":0,"w":56,"h":68},
	"sourceSize": {"w":56,"h":68},
	"pivot": {"x":0.5,"y":0.5}
},
{
	"filename": "port_enter/0.png",
	"frame": {"x":59,"y":211,"w":56,"h":68},
	"rotated": false,
	"trimmed": false,
	"spriteSourceSize": {"x":0,"y":0,"w":56,"h":68},
	"sourceSize": {"w":56,"h":68},
	"pivot": {"x":0.5,"y":0.5}
},
{
	"filename": "port_enter/1.png",
	"frame": {"x":117,"y":211,"w":56,"h":68},
	"rotated": false,
	"trimmed": false,
	"spriteSourceSize": {"x":0,"y":0,"w":56,"h":68},
	"sourceSize": {"w":56,"h":68},
	"pivot": {"x":0.5,"y":0.5}
},
{
	"filename": "port_enter/2.png",
	"frame": {"x":59,"y":351,"w":56,"h":68},
	"rotated": false,
	"trimmed": false,
	"spriteSourceSize": {"x":0,"y":0,"w":56,"h":68},
	"sourceSize": {"w":56,"h":68},
	"pivot": {"x":0.5,"y":0.5}
},
{
	"filename": "port_enter/3.png",
	"frame": {"x":117,"y":351,"w":56,"h":68},
	"rotated": false,
	"trimmed": false,
	"spriteSourceSize": {"x":0,"y":0,"w":56,"h":68},
	"sourceSize": {"w":56,"h":68},
	"pivot": {"x":0.5,"y":0.5}
},
{
	"filename": "port_enter/4.png",
	"frame": {"x":175,"y":351,"w":56,"h":68},
	"rotated": false,
	"trimmed": false,
	"spriteSourceSize": {"x":0,"y":0,"w":56,"h":68},
	"sourceSize": {"w":56,"h":68},
	"pivot": {"x":0.5,"y":0.5}
},
{
	"filename": "port_enter/5.png",
	"frame": {"x":1,"y":421,"w":56,"h":68},
	"rotated": false,
	"trimmed": false,
	"spriteSourceSize": {"x":0,"y":0,"w":56,"h":68},
	"sourceSize": {"w":56,"h":68},
	"pivot": {"x":0.5,"y":0.5}
},
{
	"filename": "port_enter/6.png",
	"frame": {"x":59,"y":421,"w":56,"h":68},
	"rotated": false,
	"trimmed": false,
	"spriteSourceSize": {"x":0,"y":0,"w":56,"h":68},
	"sourceSize": {"w":56,"h":68},
	"pivot": {"x":0.5,"y":0.5}
},
{
	"filename": "port_enter/7.png",
	"frame": {"x":59,"y":421,"w":56,"h":68},
	"rotated": false,
	"trimmed": false,
	"spriteSourceSize": {"x":0,"y":0,"w":56,"h":68},
	"sourceSize": {"w":56,"h":68},
	"pivot": {"x":0.5,"y":0.5}
},
{
	"filename": "port_enter/8.png",
	"frame": {"x":117,"y":421,"w":56,"h":68},
	"rotated": false,
	"trimmed": false,
	"spriteSourceSize": {"x":0,"y":0,"w":56,"h":68},
	"sourceSize": {"w":56,"h":68},
	"pivot": {"x":0.5,"y":0.5}
},
{
	"filename": "port_enter/9.png",
	"frame": {"x":175,"y":421,"w":56,"h":68},
	"rotated": false,
	"trimmed": false,
	"spriteSourceSize": {"x":0,"y":0,"w":56,"h":68},
	"sourceSize": {"w":56,"h":68},
	"pivot": {"x":0.5,"y":0.5}
},
{
	"filename": "port_enter/10.png",
	"frame": {"x":175,"y":211,"w":56,"h":68},
	"rotated": false,
	"trimmed": false,
	"spriteSourceSize": {"x":0,"y":0,"w":56,"h":68},
	"sourceSize": {"w":56,"h":68},
	"pivot": {"x":0.5,"y":0.5}
},
{
	"filename": "port_enter/11.png",
	"frame": {"x":1,"y":281,"w":56,"h":68},
	"rotated": false,
	"trimmed": false,
	"spriteSourceSize": {"x":0,"y":0,"w":56,"h":68},
	"sourceSize": {"w":56,"h":68},
	"pivot": {"x":0.5,"y":0.5}
},
{
	"filename": "port_enter/12.png",
	"frame": {"x":59,"y":281,"w":56,"h":68},
	"rotated": false,
	"trimmed": false,
	"spriteSourceSize": {"x":0,"y":0,"w":56,"h":68},
	"sourceSize": {"w":56,"h":68},
	"pivot": {"x":0.5,"y":0.5}
},
{
	"filename": "port_enter/13.png",
	"frame": {"x":117,"y":281,"w":56,"h":68},
	"rotated": false,
	"trimmed": false,
	"spriteSourceSize": {"x":0,"y":0,"w":56,"h":68},
	"sourceSize": {"w":56,"h":68},
	"pivot": {"x":0.5,"y":0.5}
},
{
	"filename": "port_enter/14.png",
	"frame": {"x":175,"y":281,"w":56,"h":68},
	"rotated": false,
	"trimmed": false,
	"spriteSourceSize": {"x":0,"y":0,"w":56,"h":68},
	"sourceSize": {"w":56,"h":68},
	"pivot": {"x":0.5,"y":0.5}
},
{
	"filename": "port_enter/15.png",
	"frame": {"x":1,"y":351,"w":56,"h":68},
	"rotated": false,
	"trimmed": false,
	"spriteSourceSize": {"x":0,"y":0,"w":56,"h":68},
	"sourceSize": {"w":56,"h":68},
	"pivot": {"x":0.5,"y":0.5}
},
{
	"filename": "port_leave/87.png",
	"frame": {"x":117,"y":491,"w":56,"h":68},
	"rotated": false,
	"trimmed": false,
	"spriteSourceSize": {"x":0,"y":0,"w":56,"h":68},
	"sourceSize": {"w":56,"h":68},
	"pivot": {"x":0.5,"y":0.5}
},
{
	"filename": "port_leave/88.png",
	"frame": {"x":175,"y":491,"w":56,"h":68},
	"rotated": false,
	"trimmed": false,
	"spriteSourceSize": {"x":0,"y":0,"w":56,"h":68},
	"sourceSize": {"w":56,"h":68},
	"pivot": {"x":0.5,"y":0.5}
},
{
	"filename": "port_leave/89.png",
	"frame": {"x":1,"y":561,"w":56,"h":68},
	"rotated": false,
	"trimmed": false,
	"spriteSourceSize": {"x":0,"y":0,"w":56,"h":68},
	"sourceSize": {"w":56,"h":68},
	"pivot": {"x":0.5,"y":0.5}
},
{
	"filename": "port_leave/90.png",
	"frame": {"x":59,"y":561,"w":56,"h":68},
	"rotated": false,
	"trimmed": false,
	"spriteSourceSize": {"x":0,"y":0,"w":56,"h":68},
	"sourceSize": {"w":56,"h":68},
	"pivot": {"x":0.5,"y":0.5}
},
{
	"filename": "port_leave/91.png",
	"frame": {"x":117,"y":561,"w":56,"h":68},
	"rotated": false,
	"trimmed": false,
	"spriteSourceSize": {"x":0,"y":0,"w":56,"h":68},
	"sourceSize": {"w":56,"h":68},
	"pivot": {"x":0.5,"y":0.5}
},
{
	"filename": "port_leave/92.png",
	"frame": {"x":175,"y":561,"w":56,"h":68},
	"rotated": false,
	"trimmed": false,
	"spriteSourceSize": {"x":0,"y":0,"w":56,"h":68},
	"sourceSize": {"w":56,"h":68},
	"pivot": {"x":0.5,"y":0.5}
},
{
	"filename": "port_leave/93.png",
	"frame": {"x":1,"y":631,"w":56,"h":68},
	"rotated": false,
	"trimmed": false,
	"spriteSourceSize": {"x":0,"y":0,"w":56,"h":68},
	"sourceSize": {"w":56,"h":68},
	"pivot": {"x":0.5,"y":0.5}
},
{
	"filename": "port_leave/94.png",
	"frame": {"x":59,"y":631,"w":56,"h":68},
	"rotated": false,
	"trimmed": false,
	"spriteSourceSize": {"x":0,"y":0,"w":56,"h":68},
	"sourceSize": {"w":56,"h":68},
	"pivot": {"x":0.5,"y":0.5}
},
{
	"filename": "port_leave/95.png",
	"frame": {"x":117,"y":631,"w":56,"h":68},
	"rotated": false,
	"trimmed": false,
	"spriteSourceSize": {"x":0,"y":0,"w":56,"h":68},
	"sourceSize": {"w":56,"h":68},
	"pivot": {"x":0.5,"y":0.5}
},
{
	"filename": "port_leave/96.png",
	"frame": {"x":175,"y":631,"w":56,"h":68},
	"rotated": false,
	"trimmed": false,
	"spriteSourceSize": {"x":0,"y":0,"w":56,"h":68},
	"sourceSize": {"w":56,"h":68},
	"pivot": {"x":0.5,"y":0.5}
},
{
	"filename": "port_leave/97.png",
	"frame": {"x":1,"y":701,"w":56,"h":68},
	"rotated": false,
	"trimmed": false,
	"spriteSourceSize": {"x":0,"y":0,"w":56,"h":68},
	"sourceSize": {"w":56,"h":68},
	"pivot": {"x":0.5,"y":0.5}
},
{
	"filename": "port_leave/98.png",
	"frame": {"x":59,"y":701,"w":56,"h":68},
	"rotated": false,
	"trimmed": false,
	"spriteSourceSize": {"x":0,"y":0,"w":56,"h":68},
	"sourceSize": {"w":56,"h":68},
	"pivot": {"x":0.5,"y":0.5}
},
{
	"filename": "port_leave/99.png",
	"frame": {"x":117,"y":701,"w":56,"h":68},
	"rotated": false,
	"trimmed": false,
	"spriteSourceSize": {"x":0,"y":0,"w":56,"h":68},
	"sourceSize": {"w":56,"h":68},
	"pivot": {"x":0.5,"y":0.5}
},
{
	"filename": "port_leave/100.png",
	"frame": {"x":1,"y":491,"w":56,"h":68},
	"rotated": false,
	"trimmed": false,
	"spriteSourceSize": {"x":0,"y":0,"w":56,"h":68},
	"sourceSize": {"w":56,"h":68},
	"pivot": {"x":0.5,"y":0.5}
},
{
	"filename": "port_leave/101.png",
	"frame": {"x":59,"y":491,"w":56,"h":68},
	"rotated": false,
	"trimmed": false,
	"spriteSourceSize": {"x":0,"y":0,"w":56,"h":68},
	"sourceSize": {"w":56,"h":68},
	"pivot": {"x":0.5,"y":0.5}
},
{
	"filename": "push/21.png",
	"frame": {"x":175,"y":701,"w":56,"h":68},
	"rotated": false,
	"trimmed": false,
	"spriteSourceSize": {"x":0,"y":0,"w":56,"h":68},
	"sourceSize": {"w":56,"h":68},
	"pivot": {"x":0.5,"y":0.5}
},
{
	"filename": "push/22.png",
	"frame": {"x":1,"y":771,"w":56,"h":68},
	"rotated": false,
	"trimmed": false,
	"spriteSourceSize": {"x":0,"y":0,"w":56,"h":68},
	"sourceSize": {"w":56,"h":68},
	"pivot": {"x":0.5,"y":0.5}
},
{
	"filename": "push/23.png",
	"frame": {"x":59,"y":771,"w":56,"h":68},
	"rotated": false,
	"trimmed": false,
	"spriteSourceSize": {"x":0,"y":0,"w":56,"h":68},
	"sourceSize": {"w":56,"h":68},
	"pivot": {"x":0.5,"y":0.5}
},
{
	"filename": "push/24.png",
	"frame": {"x":117,"y":771,"w":56,"h":68},
	"rotated": false,
	"trimmed": false,
	"spriteSourceSize": {"x":0,"y":0,"w":56,"h":68},
	"sourceSize": {"w":56,"h":68},
	"pivot": {"x":0.5,"y":0.5}
},
{
	"filename": "push/25.png",
	"frame": {"x":175,"y":771,"w":56,"h":68},
	"rotated": false,
	"trimmed": false,
	"spriteSourceSize": {"x":0,"y":0,"w":56,"h":68},
	"sourceSize": {"w":56,"h":68},
	"pivot": {"x":0.5,"y":0.5}
},
{
	"filename": "push/26.png",
	"frame": {"x":1,"y":841,"w":56,"h":68},
	"rotated": false,
	"trimmed": false,
	"spriteSourceSize": {"x":0,"y":0,"w":56,"h":68},
	"sourceSize": {"w":56,"h":68},
	"pivot": {"x":0.5,"y":0.5}
},
{
	"filename": "push/27.png",
	"frame": {"x":59,"y":841,"w":56,"h":68},
	"rotated": false,
	"trimmed": false,
	"spriteSourceSize": {"x":0,"y":0,"w":56,"h":68},
	"sourceSize": {"w":56,"h":68},
	"pivot": {"x":0.5,"y":0.5}
},
{
	"filename": "push/28.png",
	"frame": {"x":117,"y":771,"w":56,"h":68},
	"rotated": false,
	"trimmed": false,
	"spriteSourceSize": {"x":0,"y":0,"w":56,"h":68},
	"sourceSize": {"w":56,"h":68},
	"pivot": {"x":0.5,"y":0.5}
},
{
	"filename": "run/34.png",
	"frame": {"x":117,"y":841,"w":56,"h":68},
	"rotated": false,
	"trimmed": false,
	"spriteSourceSize": {"x":0,"y":0,"w":56,"h":68},
	"sourceSize": {"w":56,"h":68},
	"pivot": {"x":0.5,"y":0.5}
},
{
	"filename": "run/35.png",
	"frame": {"x":175,"y":841,"w":56,"h":68},
	"rotated": false,
	"trimmed": false,
	"spriteSourceSize": {"x":0,"y":0,"w":56,"h":68},
	"sourceSize": {"w":56,"h":68},
	"pivot": {"x":0.5,"y":0.5}
},
{
	"filename": "run/36.png",
	"frame": {"x":1,"y":911,"w":56,"h":68},
	"rotated": false,
	"trimmed": false,
	"spriteSourceSize": {"x":0,"y":0,"w":56,"h":68},
	"sourceSize": {"w":56,"h":68},
	"pivot": {"x":0.5,"y":0.5}
},
{
	"filename": "run/37.png",
	"frame": {"x":59,"y":911,"w":56,"h":68},
	"rotated": false,
	"trimmed": false,
	"spriteSourceSize": {"x":0,"y":0,"w":56,"h":68},
	"sourceSize": {"w":56,"h":68},
	"pivot": {"x":0.5,"y":0.5}
},
{
	"filename": "run/38.png",
	"frame": {"x":117,"y":911,"w":56,"h":68},
	"rotated": false,
	"trimmed": false,
	"spriteSourceSize": {"x":0,"y":0,"w":56,"h":68},
	"sourceSize": {"w":56,"h":68},
	"pivot": {"x":0.5,"y":0.5}
},
{
	"filename": "run/39.png",
	"frame": {"x":175,"y":911,"w":56,"h":68},
	"rotated": false,
	"trimmed": false,
	"spriteSourceSize": {"x":0,"y":0,"w":56,"h":68},
	"sourceSize": {"w":56,"h":68},
	"pivot": {"x":0.5,"y":0.5}
},
{
	"filename": "run/40.png",
	"frame": {"x":1,"y":981,"w":56,"h":68},
	"rotated": false,
	"trimmed": false,
	"spriteSourceSize": {"x":0,"y":0,"w":56,"h":68},
	"sourceSize": {"w":56,"h":68},
	"pivot": {"x":0.5,"y":0.5}
},
{
	"filename": "run/41.png",
	"frame": {"x":59,"y":981,"w":56,"h":68},
	"rotated": false,
	"trimmed": false,
	"spriteSourceSize": {"x":0,"y":0,"w":56,"h":68},
	"sourceSize": {"w":56,"h":68},
	"pivot": {"x":0.5,"y":0.5}
},
{
	"filename": "run/42.png",
	"frame": {"x":117,"y":981,"w":56,"h":68},
	"rotated": false,
	"trimmed": false,
	"spriteSourceSize": {"x":0,"y":0,"w":56,"h":68},
	"sourceSize": {"w":56,"h":68},
	"pivot": {"x":0.5,"y":0.5}
},
{
	"filename": "run/43.png",
	"frame": {"x":175,"y":981,"w":56,"h":68},
	"rotated": false,
	"trimmed": false,
	"spriteSourceSize": {"x":0,"y":0,"w":56,"h":68},
	"sourceSize": {"w":56,"h":68},
	"pivot": {"x":0.5,"y":0.5}
},
{
	"filename": "run/44.png",
	"frame": {"x":1,"y":1051,"w":56,"h":68},
	"rotated": false,
	"trimmed": false,
	"spriteSourceSize": {"x":0,"y":0,"w":56,"h":68},
	"sourceSize": {"w":56,"h":68},
	"pivot": {"x":0.5,"y":0.5}
},
{
	"filename": "shot/102.png",
	"frame": {"x":59,"y":1051,"w":56,"h":68},
	"rotated": false,
	"trimmed": false,
	"spriteSourceSize": {"x":0,"y":0,"w":56,"h":68},
	"sourceSize": {"w":56,"h":68},
	"pivot": {"x":0.5,"y":0.5}
},
{
	"filename": "shot/103.png",
	"frame": {"x":117,"y":1051,"w":56,"h":68},
	"rotated": false,
	"trimmed": false,
	"spriteSourceSize": {"x":0,"y":0,"w":56,"h":68},
	"sourceSize": {"w":56,"h":68},
	"pivot": {"x":0.5,"y":0.5}
},
{
	"filename": "shot/104.png",
	"frame": {"x":175,"y":1051,"w":56,"h":68},
	"rotated": false,
	"trimmed": false,
	"spriteSourceSize": {"x":0,"y":0,"w":56,"h":68},
	"sourceSize": {"w":56,"h":68},
	"pivot": {"x":0.5,"y":0.5}
},
{
	"filename": "shot/105.png",
	"frame": {"x":1,"y":1121,"w":56,"h":68},
	"rotated": false,
	"trimmed": false,
	"spriteSourceSize": {"x":0,"y":0,"w":56,"h":68},
	"sourceSize": {"w":56,"h":68},
	"pivot": {"x":0.5,"y":0.5}
},
{
	"filename": "shot/106.png",
	"frame": {"x":59,"y":1121,"w":56,"h":68},
	"rotated": false,
	"trimmed": false,
	"spriteSourceSize": {"x":0,"y":0,"w":56,"h":68},
	"sourceSize": {"w":56,"h":68},
	"pivot": {"x":0.5,"y":0.5}
},
{
	"filename": "shot/107.png",
	"frame": {"x":117,"y":1121,"w":56,"h":68},
	"rotated": false,
	"trimmed": false,
	"spriteSourceSize": {"x":0,"y":0,"w":56,"h":68},
	"sourceSize": {"w":56,"h":68},
	"pivot": {"x":0.5,"y":0.5}
},
{
	"filename": "shot_run/108.png",
	"frame": {"x":175,"y":1121,"w":56,"h":68},
	"rotated": false,
	"trimmed": false,
	"spriteSourceSize": {"x":0,"y":0,"w":56,"h":68},
	"sourceSize": {"w":56,"h":68},
	"pivot": {"x":0.5,"y":0.5}
},
{
	"filename": "shot_run/109.png",
	"frame": {"x":1,"y":1191,"w":56,"h":68},
	"rotated": false,
	"trimmed": false,
	"spriteSourceSize": {"x":0,"y":0,"w":56,"h":68},
	"sourceSize": {"w":56,"h":68},
	"pivot": {"x":0.5,"y":0.5}
},
{
	"filename": "shot_run/110.png",
	"frame": {"x":59,"y":1191,"w":56,"h":68},
	"rotated": false,
	"trimmed": false,
	"spriteSourceSize": {"x":0,"y":0,"w":56,"h":68},
	"sourceSize": {"w":56,"h":68},
	"pivot": {"x":0.5,"y":0.5}
},
{
	"filename": "shot_run/111.png",
	"frame": {"x":117,"y":1191,"w":56,"h":68},
	"rotated": false,
	"trimmed": false,
	"spriteSourceSize": {"x":0,"y":0,"w":56,"h":68},
	"sourceSize": {"w":56,"h":68},
	"pivot": {"x":0.5,"y":0.5}
},
{
	"filename": "shot_run/112.png",
	"frame": {"x":175,"y":1191,"w":56,"h":68},
	"rotated": false,
	"trimmed": false,
	"spriteSourceSize": {"x":0,"y":0,"w":56,"h":68},
	"sourceSize": {"w":56,"h":68},
	"pivot": {"x":0.5,"y":0.5}
},
{
	"filename": "shot_run/113.png",
	"frame": {"x":1,"y":1261,"w":56,"h":68},
	"rotated": false,
	"trimmed": false,
	"spriteSourceSize": {"x":0,"y":0,"w":56,"h":68},
	"sourceSize": {"w":56,"h":68},
	"pivot": {"x":0.5,"y":0.5}
},
{
	"filename": "shot_run/114.png",
	"frame": {"x":59,"y":1261,"w":56,"h":68},
	"rotated": false,
	"trimmed": false,
	"spriteSourceSize": {"x":0,"y":0,"w":56,"h":68},
	"sourceSize": {"w":56,"h":68},
	"pivot": {"x":0.5,"y":0.5}
},
{
	"filename": "shot_run/115.png",
	"frame": {"x":117,"y":1261,"w":56,"h":68},
	"rotated": false,
	"trimmed": false,
	"spriteSourceSize": {"x":0,"y":0,"w":56,"h":68},
	"sourceSize": {"w":56,"h":68},
	"pivot": {"x":0.5,"y":0.5}
},
{
	"filename": "shot_run/116.png",
	"frame": {"x":175,"y":1261,"w":56,"h":68},
	"rotated": false,
	"trimmed": false,
	"spriteSourceSize": {"x":0,"y":0,"w":56,"h":68},
	"sourceSize": {"w":56,"h":68},
	"pivot": {"x":0.5,"y":0.5}
},
{
	"filename": "shot_run/117.png",
	"frame": {"x":1,"y":1331,"w":56,"h":68},
	"rotated": false,
	"trimmed": false,
	"spriteSourceSize": {"x":0,"y":0,"w":56,"h":68},
	"sourceSize": {"w":56,"h":68},
	"pivot": {"x":0.5,"y":0.5}
},
{
	"filename": "shot_run/118.png",
	"frame": {"x":59,"y":1331,"w":56,"h":68},
	"rotated": false,
	"trimmed": false,
	"spriteSourceSize": {"x":0,"y":0,"w":56,"h":68},
	"sourceSize": {"w":56,"h":68},
	"pivot": {"x":0.5,"y":0.5}
},
{
	"filename": "shot_run/119.png",
	"frame": {"x":117,"y":1331,"w":56,"h":68},
	"rotated": false,
	"trimmed": false,
	"spriteSourceSize": {"x":0,"y":0,"w":56,"h":68},
	"sourceSize": {"w":56,"h":68},
	"pivot": {"x":0.5,"y":0.5}
},
{
	"filename": "shot_run/120.png",
	"frame": {"x":175,"y":1331,"w":56,"h":68},
	"rotated": false,
	"trimmed": false,
	"spriteSourceSize": {"x":0,"y":0,"w":56,"h":68},
	"sourceSize": {"w":56,"h":68},
	"pivot": {"x":0.5,"y":0.5}
}],
"meta": {
	"app": "http://www.codeandweb.com/texturepacker",
	"version": "1.0",
	"image": "mega_man.png",
	"format": "RGBA8888",
	"size": {"w":232,"h":1400},
	"scale": "1",
	"smartupdate": "$TexturePacker:SmartUpdate:57ba064f9685ac9bd62fb5c26fc0f5f3:d3e6563e3043581792e237f6bbc787eb:7991b24845d540ccbee4b78fcdbc6325$"
}
}
