{"frames": [

{
	"filename": "base/sasuke_sheet_2_01.png",
	"frame": {"x":298,"y":625,"w":36,"h":52},
	"rotated": false,
	"trimmed": false,
	"spriteSourceSize": {"x":0,"y":0,"w":36,"h":52},
	"sourceSize": {"w":36,"h":52},
	"pivot": {"x":0.5,"y":0.5}
},
{
	"filename": "base/sasuke_sheet_2_02.png",
	"frame": {"x":297,"y":679,"w":37,"h":52},
	"rotated": false,
	"trimmed": false,
	"spriteSourceSize": {"x":0,"y":0,"w":37,"h":52},
	"sourceSize": {"w":37,"h":52},
	"pivot": {"x":0.5,"y":0.5}
},
{
	"filename": "base/sasuke_sheet_2_03.png",
	"frame": {"x":1,"y":772,"w":38,"h":50},
	"rotated": false,
	"trimmed": false,
	"spriteSourceSize": {"x":0,"y":0,"w":38,"h":50},
	"sourceSize": {"w":38,"h":50},
	"pivot": {"x":0.5,"y":0.5}
},
{
	"filename": "base/sasuke_sheet_2_04.png",
	"frame": {"x":419,"y":770,"w":38,"h":49},
	"rotated": false,
	"trimmed": false,
	"spriteSourceSize": {"x":0,"y":0,"w":38,"h":49},
	"sourceSize": {"w":38,"h":49},
	"pivot": {"x":0.5,"y":0.5}
},
{
	"filename": "chidori/sasuke_sheet_2_127.png",
	"frame": {"x":289,"y":777,"w":36,"h":45},
	"rotated": false,
	"trimmed": false,
	"spriteSourceSize": {"x":0,"y":0,"w":36,"h":45},
	"sourceSize": {"w":36,"h":45},
	"pivot": {"x":0.5,"y":0.5}
},
{
	"filename": "chidori/sasuke_sheet_2_128.png",
	"frame": {"x":37,"y":962,"w":34,"h":44},
	"rotated": false,
	"trimmed": false,
	"spriteSourceSize": {"x":0,"y":0,"w":34,"h":44},
	"sourceSize": {"w":34,"h":44},
	"pivot": {"x":0.5,"y":0.5}
},
{
	"filename": "chidori/sasuke_sheet_2_129.png",
	"frame": {"x":73,"y":962,"w":34,"h":42},
	"rotated": false,
	"trimmed": false,
	"spriteSourceSize": {"x":0,"y":0,"w":34,"h":42},
	"sourceSize": {"w":34,"h":42},
	"pivot": {"x":0.5,"y":0.5}
},
{
	"filename": "chidori/sasuke_sheet_2_130.png",
	"frame": {"x":1,"y":892,"w":34,"h":43},
	"rotated": false,
	"trimmed": false,
	"spriteSourceSize": {"x":0,"y":0,"w":34,"h":43},
	"sourceSize": {"w":34,"h":43},
	"pivot": {"x":0.5,"y":0.5}
},
{
	"filename": "chidori/sasuke_sheet_2_131.png",
	"frame": {"x":283,"y":824,"w":36,"h":39},
	"rotated": false,
	"trimmed": false,
	"spriteSourceSize": {"x":0,"y":0,"w":36,"h":39},
	"sourceSize": {"w":36,"h":39},
	"pivot": {"x":0.5,"y":0.5}
},
{
	"filename": "chidori/sasuke_sheet_2_132.png",
	"frame": {"x":365,"y":819,"w":36,"h":39},
	"rotated": false,
	"trimmed": false,
	"spriteSourceSize": {"x":0,"y":0,"w":36,"h":39},
	"sourceSize": {"w":36,"h":39},
	"pivot": {"x":0.5,"y":0.5}
},
{
	"filename": "chidori/sasuke_sheet_2_133.png",
	"frame": {"x":321,"y":851,"w":36,"h":39},
	"rotated": false,
	"trimmed": false,
	"spriteSourceSize": {"x":0,"y":0,"w":36,"h":39},
	"sourceSize": {"w":36,"h":39},
	"pivot": {"x":0.5,"y":0.5}
},
{
	"filename": "chidori/sasuke_sheet_2_134.png",
	"frame": {"x":283,"y":824,"w":36,"h":39},
	"rotated": false,
	"trimmed": false,
	"spriteSourceSize": {"x":0,"y":0,"w":36,"h":39},
	"sourceSize": {"w":36,"h":39},
	"pivot": {"x":0.5,"y":0.5}
},
{
	"filename": "chidori/sasuke_sheet_2_135.png",
	"frame": {"x":403,"y":821,"w":36,"h":39},
	"rotated": false,
	"trimmed": false,
	"spriteSourceSize": {"x":0,"y":0,"w":36,"h":39},
	"sourceSize": {"w":36,"h":39},
	"pivot": {"x":0.5,"y":0.5}
},
{
	"filename": "chidori/sasuke_sheet_2_136.png",
	"frame": {"x":359,"y":860,"w":36,"h":39},
	"rotated": false,
	"trimmed": false,
	"spriteSourceSize": {"x":0,"y":0,"w":36,"h":39},
	"sourceSize": {"w":36,"h":39},
	"pivot": {"x":0.5,"y":0.5}
},
{
	"filename": "chidori/sasuke_sheet_2_137.png",
	"frame": {"x":372,"y":775,"w":36,"h":42},
	"rotated": false,
	"trimmed": false,
	"spriteSourceSize": {"x":0,"y":0,"w":36,"h":42},
	"sourceSize": {"w":36,"h":42},
	"pivot": {"x":0.5,"y":0.5}
},
{
	"filename": "chidori/sasuke_sheet_2_138.png",
	"frame": {"x":359,"y":860,"w":36,"h":39},
	"rotated": false,
	"trimmed": false,
	"spriteSourceSize": {"x":0,"y":0,"w":36,"h":39},
	"sourceSize": {"w":36,"h":39},
	"pivot": {"x":0.5,"y":0.5}
},
{
	"filename": "chidori/sasuke_sheet_2_139.png",
	"frame": {"x":441,"y":856,"w":36,"h":39},
	"rotated": false,
	"trimmed": false,
	"spriteSourceSize": {"x":0,"y":0,"w":36,"h":39},
	"sourceSize": {"w":36,"h":39},
	"pivot": {"x":0.5,"y":0.5}
},
{
	"filename": "chidori/sasuke_sheet_2_140.png",
	"frame": {"x":165,"y":689,"w":43,"h":43},
	"rotated": false,
	"trimmed": false,
	"spriteSourceSize": {"x":0,"y":0,"w":43,"h":43},
	"sourceSize": {"w":43,"h":43},
	"pivot": {"x":0.5,"y":0.5}
},
{
	"filename": "chidori/sasuke_sheet_2_141.png",
	"frame": {"x":117,"y":689,"w":46,"h":44},
	"rotated": false,
	"trimmed": false,
	"spriteSourceSize": {"x":0,"y":0,"w":46,"h":44},
	"sourceSize": {"w":46,"h":44},
	"pivot": {"x":0.5,"y":0.5}
},
{
	"filename": "chidori/sasuke_sheet_2_142.png",
	"frame": {"x":1,"y":682,"w":51,"h":45},
	"rotated": false,
	"trimmed": false,
	"spriteSourceSize": {"x":0,"y":0,"w":51,"h":45},
	"sourceSize": {"w":51,"h":45},
	"pivot": {"x":0.5,"y":0.5}
},
{
	"filename": "chidori/sasuke_sheet_2_143.png",
	"frame": {"x":336,"y":531,"w":62,"h":51},
	"rotated": false,
	"trimmed": false,
	"spriteSourceSize": {"x":0,"y":0,"w":62,"h":51},
	"sourceSize": {"w":62,"h":51},
	"pivot": {"x":0.5,"y":0.5}
},
{
	"filename": "chidori/sasuke_sheet_2_144.png",
	"frame": {"x":387,"y":660,"w":48,"h":46},
	"rotated": false,
	"trimmed": false,
	"spriteSourceSize": {"x":0,"y":0,"w":48,"h":46},
	"sourceSize": {"w":48,"h":46},
	"pivot": {"x":0.5,"y":0.5}
},
{
	"filename": "chidori/sasuke_sheet_2_145.png",
	"frame": {"x":435,"y":897,"w":36,"h":38},
	"rotated": false,
	"trimmed": false,
	"spriteSourceSize": {"x":0,"y":0,"w":36,"h":38},
	"sourceSize": {"w":36,"h":38},
	"pivot": {"x":0.5,"y":0.5}
},
{
	"filename": "chidori/sasuke_sheet_2_146.png",
	"frame": {"x":464,"y":531,"w":47,"h":44},
	"rotated": false,
	"trimmed": false,
	"spriteSourceSize": {"x":0,"y":0,"w":47,"h":44},
	"sourceSize": {"w":47,"h":44},
	"pivot": {"x":0.5,"y":0.5}
},
{
	"filename": "chidori/sasuke_sheet_2_147.png",
	"frame": {"x":436,"y":724,"w":47,"h":44},
	"rotated": false,
	"trimmed": false,
	"spriteSourceSize": {"x":0,"y":0,"w":47,"h":44},
	"sourceSize": {"w":47,"h":44},
	"pivot": {"x":0.5,"y":0.5}
},
{
	"filename": "chidori/sasuke_sheet_2_148.png",
	"frame": {"x":397,"y":862,"w":36,"h":39},
	"rotated": false,
	"trimmed": false,
	"spriteSourceSize": {"x":0,"y":0,"w":36,"h":39},
	"sourceSize": {"w":36,"h":39},
	"pivot": {"x":0.5,"y":0.5}
},
{
	"filename": "chidori/sasuke_sheet_2_149.png",
	"frame": {"x":367,"y":363,"w":87,"h":36},
	"rotated": false,
	"trimmed": false,
	"spriteSourceSize": {"x":0,"y":0,"w":87,"h":36},
	"sourceSize": {"w":87,"h":36},
	"pivot": {"x":0.5,"y":0.5}
},
{
	"filename": "chidori/sasuke_sheet_2_150.png",
	"frame": {"x":367,"y":288,"w":91,"h":34},
	"rotated": false,
	"trimmed": false,
	"spriteSourceSize": {"x":0,"y":0,"w":91,"h":34},
	"sourceSize": {"w":91,"h":34},
	"pivot": {"x":0.5,"y":0.5}
},
{
	"filename": "chidori/sasuke_sheet_2_151.png",
	"frame": {"x":1,"y":513,"w":87,"h":32},
	"rotated": false,
	"trimmed": false,
	"spriteSourceSize": {"x":0,"y":0,"w":87,"h":32},
	"sourceSize": {"w":87,"h":32},
	"pivot": {"x":0.5,"y":0.5}
},
{
	"filename": "chidori/sasuke_sheet_2_152.png",
	"frame": {"x":367,"y":324,"w":90,"h":37},
	"rotated": false,
	"trimmed": false,
	"spriteSourceSize": {"x":0,"y":0,"w":90,"h":37},
	"sourceSize": {"w":90,"h":37},
	"pivot": {"x":0.5,"y":0.5}
},
{
	"filename": "chidori/sasuke_sheet_2_153.png",
	"frame": {"x":1,"y":547,"w":81,"h":35},
	"rotated": false,
	"trimmed": false,
	"spriteSourceSize": {"x":0,"y":0,"w":81,"h":35},
	"sourceSize": {"w":81,"h":35},
	"pivot": {"x":0.5,"y":0.5}
},
{
	"filename": "chidori/sasuke_sheet_2_154.png",
	"frame": {"x":90,"y":513,"w":79,"h":44},
	"rotated": false,
	"trimmed": false,
	"spriteSourceSize": {"x":0,"y":0,"w":79,"h":44},
	"sourceSize": {"w":79,"h":44},
	"pivot": {"x":0.5,"y":0.5}
},
{
	"filename": "chidori/sasuke_sheet_2_155.png",
	"frame": {"x":395,"y":617,"w":57,"h":41},
	"rotated": false,
	"trimmed": false,
	"spriteSourceSize": {"x":0,"y":0,"w":57,"h":41},
	"sourceSize": {"w":57,"h":41},
	"pivot": {"x":0.5,"y":0.5}
},
{
	"filename": "chidori/sasuke_sheet_2_156.png",
	"frame": {"x":456,"y":388,"w":55,"h":41},
	"rotated": false,
	"trimmed": false,
	"spriteSourceSize": {"x":0,"y":0,"w":55,"h":41},
	"sourceSize": {"w":55,"h":41},
	"pivot": {"x":0.5,"y":0.5}
},
{
	"filename": "chidori/sasuke_sheet_2_157.png",
	"frame": {"x":279,"y":582,"w":55,"h":41},
	"rotated": false,
	"trimmed": false,
	"spriteSourceSize": {"x":0,"y":0,"w":55,"h":41},
	"sourceSize": {"w":55,"h":41},
	"pivot": {"x":0.5,"y":0.5}
},
{
	"filename": "chidori/sasuke_sheet_2_158.png",
	"frame": {"x":189,"y":625,"w":54,"h":40},
	"rotated": false,
	"trimmed": false,
	"spriteSourceSize": {"x":0,"y":0,"w":54,"h":40},
	"sourceSize": {"w":54,"h":40},
	"pivot": {"x":0.5,"y":0.5}
},
{
	"filename": "chidori/sasuke_sheet_2_159.png",
	"frame": {"x":132,"y":647,"w":54,"h":40},
	"rotated": false,
	"trimmed": false,
	"spriteSourceSize": {"x":0,"y":0,"w":54,"h":40},
	"sourceSize": {"w":54,"h":40},
	"pivot": {"x":0.5,"y":0.5}
},
{
	"filename": "chidori/sasuke_sheet_2_160.png",
	"frame": {"x":189,"y":625,"w":54,"h":40},
	"rotated": false,
	"trimmed": false,
	"spriteSourceSize": {"x":0,"y":0,"w":54,"h":40},
	"sourceSize": {"w":54,"h":40},
	"pivot": {"x":0.5,"y":0.5}
},
{
	"filename": "chidori/sasuke_sheet_2_161.png",
	"frame": {"x":61,"y":652,"w":54,"h":40},
	"rotated": false,
	"trimmed": false,
	"spriteSourceSize": {"x":0,"y":0,"w":54,"h":40},
	"sourceSize": {"w":54,"h":40},
	"pivot": {"x":0.5,"y":0.5}
},
{
	"filename": "chidori/sasuke_sheet_2_162.png",
	"frame": {"x":189,"y":625,"w":54,"h":40},
	"rotated": false,
	"trimmed": false,
	"spriteSourceSize": {"x":0,"y":0,"w":54,"h":40},
	"sourceSize": {"w":54,"h":40},
	"pivot": {"x":0.5,"y":0.5}
},
{
	"filename": "chidori/sasuke_sheet_2_163.png",
	"frame": {"x":400,"y":574,"w":60,"h":41},
	"rotated": false,
	"trimmed": false,
	"spriteSourceSize": {"x":0,"y":0,"w":60,"h":41},
	"sourceSize": {"w":60,"h":41},
	"pivot": {"x":0.5,"y":0.5}
},
{
	"filename": "chidori/sasuke_sheet_2_164.png",
	"frame": {"x":72,"y":609,"w":58,"h":41},
	"rotated": false,
	"trimmed": false,
	"spriteSourceSize": {"x":0,"y":0,"w":58,"h":41},
	"sourceSize": {"w":58,"h":41},
	"pivot": {"x":0.5,"y":0.5}
},
{
	"filename": "chidori/sasuke_sheet_2_165.png",
	"frame": {"x":84,"y":559,"w":72,"h":48},
	"rotated": false,
	"trimmed": false,
	"spriteSourceSize": {"x":0,"y":0,"w":72,"h":48},
	"sourceSize": {"w":72,"h":48},
	"pivot": {"x":0.5,"y":0.5}
},
{
	"filename": "chidori/sasuke_sheet_2_166.png",
	"frame": {"x":1,"y":620,"w":58,"h":41},
	"rotated": false,
	"trimmed": false,
	"spriteSourceSize": {"x":0,"y":0,"w":58,"h":41},
	"sourceSize": {"w":58,"h":41},
	"pivot": {"x":0.5,"y":0.5}
},
{
	"filename": "chidori/sasuke_sheet_2_167.png",
	"frame": {"x":219,"y":582,"w":58,"h":41},
	"rotated": false,
	"trimmed": false,
	"spriteSourceSize": {"x":0,"y":0,"w":58,"h":41},
	"sourceSize": {"w":58,"h":41},
	"pivot": {"x":0.5,"y":0.5}
},
{
	"filename": "fire/fire71.png",
	"frame": {"x":376,"y":751,"w":41,"h":22},
	"rotated": false,
	"trimmed": false,
	"spriteSourceSize": {"x":0,"y":0,"w":41,"h":22},
	"sourceSize": {"w":41,"h":22},
	"pivot": {"x":0.5,"y":0.5}
},
{
	"filename": "fire/fire72.png",
	"frame": {"x":1,"y":584,"w":69,"h":34},
	"rotated": false,
	"trimmed": false,
	"spriteSourceSize": {"x":0,"y":0,"w":69,"h":34},
	"sourceSize": {"w":69,"h":34},
	"pivot": {"x":0.5,"y":0.5}
},
{
	"filename": "fire/fire73.png",
	"frame": {"x":385,"y":1,"w":116,"h":74},
	"rotated": false,
	"trimmed": false,
	"spriteSourceSize": {"x":0,"y":0,"w":116,"h":74},
	"sourceSize": {"w":116,"h":74},
	"pivot": {"x":0.5,"y":0.5}
},
{
	"filename": "fire/fire74.png",
	"frame": {"x":364,"y":431,"w":146,"h":98},
	"rotated": false,
	"trimmed": false,
	"spriteSourceSize": {"x":0,"y":0,"w":146,"h":98},
	"sourceSize": {"w":146,"h":98},
	"pivot": {"x":0.5,"y":0.5}
},
{
	"filename": "fire/fire75.png",
	"frame": {"x":172,"y":482,"w":162,"h":98},
	"rotated": false,
	"trimmed": false,
	"spriteSourceSize": {"x":0,"y":0,"w":162,"h":98},
	"sourceSize": {"w":162,"h":98},
	"pivot": {"x":0.5,"y":0.5}
},
{
	"filename": "fire/fire76.png",
	"frame": {"x":1,"y":399,"w":169,"h":112},
	"rotated": false,
	"trimmed": false,
	"spriteSourceSize": {"x":0,"y":0,"w":169,"h":112},
	"sourceSize": {"w":169,"h":112},
	"pivot": {"x":0.5,"y":0.5}
},
{
	"filename": "fire/fire77.png",
	"frame": {"x":184,"y":255,"w":181,"h":121},
	"rotated": false,
	"trimmed": false,
	"spriteSourceSize": {"x":0,"y":0,"w":181,"h":121},
	"sourceSize": {"w":181,"h":121},
	"pivot": {"x":0.5,"y":0.5}
},
{
	"filename": "fire/fire78.png",
	"frame": {"x":1,"y":1,"w":190,"h":135},
	"rotated": false,
	"trimmed": false,
	"spriteSourceSize": {"x":0,"y":0,"w":190,"h":135},
	"sourceSize": {"w":190,"h":135},
	"pivot": {"x":0.5,"y":0.5}
},
{
	"filename": "fire/fire79.png",
	"frame": {"x":1,"y":138,"w":181,"h":132},
	"rotated": false,
	"trimmed": false,
	"spriteSourceSize": {"x":0,"y":0,"w":181,"h":132},
	"sourceSize": {"w":181,"h":132},
	"pivot": {"x":0.5,"y":0.5}
},
{
	"filename": "fire/fire80.png",
	"frame": {"x":193,"y":1,"w":190,"h":127},
	"rotated": false,
	"trimmed": false,
	"spriteSourceSize": {"x":0,"y":0,"w":190,"h":127},
	"sourceSize": {"w":190,"h":127},
	"pivot": {"x":0.5,"y":0.5}
},
{
	"filename": "fire/fire81.png",
	"frame": {"x":193,"y":130,"w":182,"h":123},
	"rotated": false,
	"trimmed": false,
	"spriteSourceSize": {"x":0,"y":0,"w":182,"h":123},
	"sourceSize": {"w":182,"h":123},
	"pivot": {"x":0.5,"y":0.5}
},
{
	"filename": "fire/fire82.png",
	"frame": {"x":1,"y":272,"w":180,"h":125},
	"rotated": false,
	"trimmed": false,
	"spriteSourceSize": {"x":0,"y":0,"w":180,"h":125},
	"sourceSize": {"w":180,"h":125},
	"pivot": {"x":0.5,"y":0.5}
},
{
	"filename": "fire/fire83.png",
	"frame": {"x":183,"y":378,"w":179,"h":102},
	"rotated": false,
	"trimmed": false,
	"spriteSourceSize": {"x":0,"y":0,"w":179,"h":102},
	"sourceSize": {"w":179,"h":102},
	"pivot": {"x":0.5,"y":0.5}
},
{
	"filename": "fire/fire84.png",
	"frame": {"x":377,"y":186,"w":131,"h":100},
	"rotated": false,
	"trimmed": false,
	"spriteSourceSize": {"x":0,"y":0,"w":131,"h":100},
	"sourceSize": {"w":131,"h":100},
	"pivot": {"x":0.5,"y":0.5}
},
{
	"filename": "fire/fire85.png",
	"frame": {"x":1,"y":937,"w":32,"h":23},
	"rotated": false,
	"trimmed": false,
	"spriteSourceSize": {"x":0,"y":0,"w":32,"h":23},
	"sourceSize": {"w":32,"h":23},
	"pivot": {"x":0.5,"y":0.5}
},
{
	"filename": "fire/fire86.png",
	"frame": {"x":385,"y":77,"w":93,"h":97},
	"rotated": false,
	"trimmed": false,
	"spriteSourceSize": {"x":0,"y":0,"w":93,"h":97},
	"sourceSize": {"w":93,"h":97},
	"pivot": {"x":0.5,"y":0.5}
},
{
	"filename": "fire/fire87.png",
	"frame": {"x":333,"y":775,"w":37,"h":30},
	"rotated": false,
	"trimmed": false,
	"spriteSourceSize": {"x":0,"y":0,"w":37,"h":30},
	"sourceSize": {"w":37,"h":30},
	"pivot": {"x":0.5,"y":0.5}
},
{
	"filename": "fire/fire88.png",
	"frame": {"x":38,"y":865,"w":35,"h":30},
	"rotated": false,
	"trimmed": false,
	"spriteSourceSize": {"x":0,"y":0,"w":35,"h":30},
	"sourceSize": {"w":35,"h":30},
	"pivot": {"x":0.5,"y":0.5}
},
{
	"filename": "high_kick/sasuke_sheet_2_51.png",
	"frame": {"x":473,"y":909,"w":35,"h":51},
	"rotated": false,
	"trimmed": false,
	"spriteSourceSize": {"x":0,"y":0,"w":35,"h":51},
	"sourceSize": {"w":35,"h":51},
	"pivot": {"x":0.5,"y":0.5}
},
{
	"filename": "high_kick/sasuke_sheet_2_52.png",
	"frame": {"x":459,"y":339,"w":52,"h":47},
	"rotated": false,
	"trimmed": false,
	"spriteSourceSize": {"x":0,"y":0,"w":52,"h":47},
	"sourceSize": {"w":52,"h":47},
	"pivot": {"x":0.5,"y":0.5}
},
{
	"filename": "high_kick/sasuke_sheet_2_53.png",
	"frame": {"x":462,"y":577,"w":49,"h":49},
	"rotated": false,
	"trimmed": false,
	"spriteSourceSize": {"x":0,"y":0,"w":49,"h":49},
	"sourceSize": {"w":49,"h":49},
	"pivot": {"x":0.5,"y":0.5}
},
{
	"filename": "high_kick/sasuke_sheet_2_54.png",
	"frame": {"x":480,"y":77,"w":31,"h":53},
	"rotated": false,
	"trimmed": false,
	"spriteSourceSize": {"x":0,"y":0,"w":31,"h":53},
	"sourceSize": {"w":31,"h":53},
	"pivot": {"x":0.5,"y":0.5}
},
{
	"filename": "high_kick/sasuke_sheet_2_55.png",
	"frame": {"x":460,"y":288,"w":51,"h":49},
	"rotated": false,
	"trimmed": false,
	"spriteSourceSize": {"x":0,"y":0,"w":51,"h":49},
	"sourceSize": {"w":51,"h":49},
	"pivot": {"x":0.5,"y":0.5}
},
{
	"filename": "high_kick/sasuke_sheet_2_56.png",
	"frame": {"x":336,"y":672,"w":48,"h":46},
	"rotated": false,
	"trimmed": false,
	"spriteSourceSize": {"x":0,"y":0,"w":48,"h":46},
	"sourceSize": {"w":48,"h":46},
	"pivot": {"x":0.5,"y":0.5}
},
{
	"filename": "high_kick/sasuke_sheet_2_57.png",
	"frame": {"x":37,"y":903,"w":34,"h":44},
	"rotated": false,
	"trimmed": false,
	"spriteSourceSize": {"x":0,"y":0,"w":34,"h":44},
	"sourceSize": {"w":34,"h":44},
	"pivot": {"x":0.5,"y":0.5}
},
{
	"filename": "high_puch/sasuke_sheet_2_58.png",
	"frame": {"x":245,"y":709,"w":42,"h":42},
	"rotated": false,
	"trimmed": false,
	"spriteSourceSize": {"x":0,"y":0,"w":42,"h":42},
	"sourceSize": {"w":42,"h":42},
	"pivot": {"x":0.5,"y":0.5}
},
{
	"filename": "high_puch/sasuke_sheet_2_59.png",
	"frame": {"x":400,"y":531,"w":62,"h":41},
	"rotated": false,
	"trimmed": false,
	"spriteSourceSize": {"x":0,"y":0,"w":62,"h":41},
	"sourceSize": {"w":62,"h":41},
	"pivot": {"x":0.5,"y":0.5}
},
{
	"filename": "high_puch/sasuke_sheet_2_60.png",
	"frame": {"x":158,"y":582,"w":59,"h":41},
	"rotated": false,
	"trimmed": false,
	"spriteSourceSize": {"x":0,"y":0,"w":59,"h":41},
	"sourceSize": {"w":59,"h":41},
	"pivot": {"x":0.5,"y":0.5}
},
{
	"filename": "high_puch/sasuke_sheet_2_61.png",
	"frame": {"x":336,"y":584,"w":57,"h":42},
	"rotated": false,
	"trimmed": false,
	"spriteSourceSize": {"x":0,"y":0,"w":57,"h":42},
	"sourceSize": {"w":57,"h":42},
	"pivot": {"x":0.5,"y":0.5}
},
{
	"filename": "high_puch/sasuke_sheet_2_62.png",
	"frame": {"x":102,"y":735,"w":40,"h":43},
	"rotated": false,
	"trimmed": false,
	"spriteSourceSize": {"x":0,"y":0,"w":40,"h":43},
	"sourceSize": {"w":40,"h":43},
	"pivot": {"x":0.5,"y":0.5}
},
{
	"filename": "hit/sasuke_sheet_2_171.png",
	"frame": {"x":459,"y":808,"w":37,"h":46},
	"rotated": false,
	"trimmed": false,
	"spriteSourceSize": {"x":0,"y":0,"w":37,"h":46},
	"sourceSize": {"w":37,"h":46},
	"pivot": {"x":0.5,"y":0.5}
},
{
	"filename": "hit/sasuke_sheet_2_172.png",
	"frame": {"x":1,"y":832,"w":35,"h":46},
	"rotated": false,
	"trimmed": false,
	"spriteSourceSize": {"x":0,"y":0,"w":35,"h":46},
	"sourceSize": {"w":35,"h":46},
	"pivot": {"x":0.5,"y":0.5}
},
{
	"filename": "hit/sasuke_sheet_2_173.png",
	"frame": {"x":459,"y":770,"w":38,"h":36},
	"rotated": false,
	"trimmed": false,
	"spriteSourceSize": {"x":0,"y":0,"w":38,"h":36},
	"sourceSize": {"w":38,"h":36},
	"pivot": {"x":0.5,"y":0.5}
},
{
	"filename": "hit/sasuke_sheet_2_174.png",
	"frame": {"x":132,"y":625,"w":55,"h":20},
	"rotated": false,
	"trimmed": false,
	"spriteSourceSize": {"x":0,"y":0,"w":55,"h":20},
	"sourceSize": {"w":55,"h":20},
	"pivot": {"x":0.5,"y":0.5}
},
{
	"filename": "hit/sasuke_sheet_2_175.png",
	"frame": {"x":364,"y":401,"w":62,"h":27},
	"rotated": false,
	"trimmed": false,
	"spriteSourceSize": {"x":0,"y":0,"w":62,"h":27},
	"sourceSize": {"w":62,"h":27},
	"pivot": {"x":0.5,"y":0.5}
},
{
	"filename": "hit/sasuke_sheet_2_176.png",
	"frame": {"x":454,"y":628,"w":56,"h":22},
	"rotated": false,
	"trimmed": false,
	"spriteSourceSize": {"x":0,"y":0,"w":56,"h":22},
	"sourceSize": {"w":56,"h":22},
	"pivot": {"x":0.5,"y":0.5}
},
{
	"filename": "hit/sasuke_sheet_2_177.png",
	"frame": {"x":454,"y":652,"w":55,"h":23},
	"rotated": false,
	"trimmed": false,
	"spriteSourceSize": {"x":0,"y":0,"w":55,"h":23},
	"sourceSize": {"w":55,"h":23},
	"pivot": {"x":0.5,"y":0.5}
},
{
	"filename": "hit/sasuke_sheet_2_178.png",
	"frame": {"x":1,"y":663,"w":54,"h":17},
	"rotated": false,
	"trimmed": false,
	"spriteSourceSize": {"x":0,"y":0,"w":54,"h":17},
	"sourceSize": {"w":54,"h":17},
	"pivot": {"x":0.5,"y":0.5}
},
{
	"filename": "hit/sasuke_sheet_2_179.png",
	"frame": {"x":188,"y":667,"w":50,"h":20},
	"rotated": false,
	"trimmed": false,
	"spriteSourceSize": {"x":0,"y":0,"w":50,"h":20},
	"sourceSize": {"w":50,"h":20},
	"pivot": {"x":0.5,"y":0.5}
},
{
	"filename": "hit/sasuke_sheet_2_180.png",
	"frame": {"x":245,"y":625,"w":51,"h":20},
	"rotated": false,
	"trimmed": false,
	"spriteSourceSize": {"x":0,"y":0,"w":51,"h":20},
	"sourceSize": {"w":51,"h":20},
	"pivot": {"x":0.5,"y":0.5}
},
{
	"filename": "hit/sasuke_sheet_2_181.png",
	"frame": {"x":336,"y":720,"w":48,"h":20},
	"rotated": false,
	"trimmed": false,
	"spriteSourceSize": {"x":0,"y":0,"w":48,"h":20},
	"sourceSize": {"w":48,"h":20},
	"pivot": {"x":0.5,"y":0.5}
},
{
	"filename": "hit/sasuke_sheet_2_182.png",
	"frame": {"x":245,"y":647,"w":51,"h":17},
	"rotated": false,
	"trimmed": false,
	"spriteSourceSize": {"x":0,"y":0,"w":51,"h":17},
	"sourceSize": {"w":51,"h":17},
	"pivot": {"x":0.5,"y":0.5}
},
{
	"filename": "hit/sasuke_sheet_2_183.png",
	"frame": {"x":38,"y":824,"w":32,"h":37},
	"rotated": false,
	"trimmed": false,
	"spriteSourceSize": {"x":0,"y":0,"w":32,"h":37},
	"sourceSize": {"w":32,"h":37},
	"pivot": {"x":0.5,"y":0.5}
},
{
	"filename": "jump/sasuke_sheet_2_37.png",
	"frame": {"x":209,"y":739,"w":34,"h":48},
	"rotated": false,
	"trimmed": false,
	"spriteSourceSize": {"x":0,"y":0,"w":34,"h":48},
	"sourceSize": {"w":34,"h":48},
	"pivot": {"x":0.5,"y":0.5}
},
{
	"filename": "jump/sasuke_sheet_2_38.png",
	"frame": {"x":1,"y":962,"w":34,"h":48},
	"rotated": false,
	"trimmed": false,
	"spriteSourceSize": {"x":0,"y":0,"w":34,"h":48},
	"sourceSize": {"w":34,"h":48},
	"pivot": {"x":0.5,"y":0.5}
},
{
	"filename": "jump/sasuke_sheet_2_39.png",
	"frame": {"x":479,"y":856,"w":32,"h":51},
	"rotated": false,
	"trimmed": false,
	"spriteSourceSize": {"x":0,"y":0,"w":32,"h":51},
	"sourceSize": {"w":32,"h":51},
	"pivot": {"x":0.5,"y":0.5}
},
{
	"filename": "jump/sasuke_sheet_2_40.png",
	"frame": {"x":480,"y":132,"w":31,"h":52},
	"rotated": false,
	"trimmed": false,
	"spriteSourceSize": {"x":0,"y":0,"w":31,"h":52},
	"sourceSize": {"w":31,"h":52},
	"pivot": {"x":0.5,"y":0.5}
},
{
	"filename": "jump/sasuke_sheet_2_48.png",
	"frame": {"x":333,"y":742,"w":41,"h":31},
	"rotated": false,
	"trimmed": false,
	"spriteSourceSize": {"x":0,"y":0,"w":41,"h":31},
	"sourceSize": {"w":41,"h":31},
	"pivot": {"x":0.5,"y":0.5}
},
{
	"filename": "jump/sasuke_sheet_2_49.png",
	"frame": {"x":245,"y":753,"w":42,"h":31},
	"rotated": false,
	"trimmed": false,
	"spriteSourceSize": {"x":0,"y":0,"w":42,"h":31},
	"sourceSize": {"w":42,"h":31},
	"pivot": {"x":0.5,"y":0.5}
},
{
	"filename": "jump/sasuke_sheet_2_50.png",
	"frame": {"x":245,"y":786,"w":36,"h":44},
	"rotated": false,
	"trimmed": false,
	"spriteSourceSize": {"x":0,"y":0,"w":36,"h":44},
	"sourceSize": {"w":36,"h":44},
	"pivot": {"x":0.5,"y":0.5}
},
{
	"filename": "low_kick/sasuke_sheet_2_63.png",
	"frame": {"x":210,"y":689,"w":33,"h":48},
	"rotated": false,
	"trimmed": false,
	"spriteSourceSize": {"x":0,"y":0,"w":33,"h":48},
	"sourceSize": {"w":33,"h":48},
	"pivot": {"x":0.5,"y":0.5}
},
{
	"filename": "low_kick/sasuke_sheet_2_64.png",
	"frame": {"x":437,"y":677,"w":48,"h":45},
	"rotated": false,
	"trimmed": false,
	"spriteSourceSize": {"x":0,"y":0,"w":48,"h":45},
	"sourceSize": {"w":48,"h":45},
	"pivot": {"x":0.5,"y":0.5}
},
{
	"filename": "low_kick/sasuke_sheet_2_65.png",
	"frame": {"x":54,"y":694,"w":46,"h":43},
	"rotated": false,
	"trimmed": false,
	"spriteSourceSize": {"x":0,"y":0,"w":46,"h":43},
	"sourceSize": {"w":46,"h":43},
	"pivot": {"x":0.5,"y":0.5}
},
{
	"filename": "low_kick/sasuke_sheet_2_66.png",
	"frame": {"x":1,"y":729,"w":45,"h":41},
	"rotated": false,
	"trimmed": false,
	"spriteSourceSize": {"x":0,"y":0,"w":45,"h":41},
	"sourceSize": {"w":45,"h":41},
	"pivot": {"x":0.5,"y":0.5}
},
{
	"filename": "low_punch/sasuke_sheet_2_67.png",
	"frame": {"x":245,"y":666,"w":50,"h":41},
	"rotated": false,
	"trimmed": false,
	"spriteSourceSize": {"x":0,"y":0,"w":50,"h":41},
	"sourceSize": {"w":50,"h":41},
	"pivot": {"x":0.5,"y":0.5}
},
{
	"filename": "low_punch/sasuke_sheet_2_68.png",
	"frame": {"x":336,"y":628,"w":49,"h":42},
	"rotated": false,
	"trimmed": false,
	"spriteSourceSize": {"x":0,"y":0,"w":49,"h":42},
	"sourceSize": {"w":49,"h":42},
	"pivot": {"x":0.5,"y":0.5}
},
{
	"filename": "run/sasuke_sheet_2_29.png",
	"frame": {"x":165,"y":734,"w":42,"h":44},
	"rotated": false,
	"trimmed": false,
	"spriteSourceSize": {"x":0,"y":0,"w":42,"h":44},
	"sourceSize": {"w":42,"h":44},
	"pivot": {"x":0.5,"y":0.5}
},
{
	"filename": "run/sasuke_sheet_2_30.png",
	"frame": {"x":386,"y":708,"w":48,"h":41},
	"rotated": false,
	"trimmed": false,
	"spriteSourceSize": {"x":0,"y":0,"w":48,"h":41},
	"sourceSize": {"w":48,"h":41},
	"pivot": {"x":0.5,"y":0.5}
},
{
	"filename": "run/sasuke_sheet_2_31.png",
	"frame": {"x":327,"y":807,"w":36,"h":42},
	"rotated": false,
	"trimmed": false,
	"spriteSourceSize": {"x":0,"y":0,"w":36,"h":42},
	"sourceSize": {"w":36,"h":42},
	"pivot": {"x":0.5,"y":0.5}
},
{
	"filename": "run/sasuke_sheet_2_32.png",
	"frame": {"x":48,"y":739,"w":39,"h":44},
	"rotated": false,
	"trimmed": false,
	"spriteSourceSize": {"x":0,"y":0,"w":39,"h":44},
	"sourceSize": {"w":39,"h":44},
	"pivot": {"x":0.5,"y":0.5}
},
{
	"filename": "run/sasuke_sheet_2_33.png",
	"frame": {"x":289,"y":733,"w":42,"h":42},
	"rotated": false,
	"trimmed": false,
	"spriteSourceSize": {"x":0,"y":0,"w":42,"h":42},
	"sourceSize": {"w":42,"h":42},
	"pivot": {"x":0.5,"y":0.5}
},
{
	"filename": "run/sasuke_sheet_2_34.png",
	"frame": {"x":73,"y":903,"w":34,"h":42},
	"rotated": false,
	"trimmed": false,
	"spriteSourceSize": {"x":0,"y":0,"w":34,"h":42},
	"sourceSize": {"w":34,"h":42},
	"pivot": {"x":0.5,"y":0.5}
}],
"meta": {
	"app": "http://www.codeandweb.com/texturepacker",
	"version": "1.0",
	"image": "sasuke.png",
	"format": "RGBA8888",
	"size": {"w":512,"h":1024},
	"scale": "1",
	"smartupdate": "$TexturePacker:SmartUpdate:0b171523cf660cbdc1c7ce3341717220:6edc694530709b5be2eae6e376d3aa31:5e10bf875ac7c77c5e16c15d2301fc38$"
}
}
